<svg width="429" height="419" viewBox="0 0 429 419" fill="none" xmlns="http://www.w3.org/2000/svg">
<path fill-rule="evenodd" clip-rule="evenodd" d="M159.172 66.2654C203.79 44.3134 254.679 57.6564 296.99 78.2712C335.735 97.1484 362.882 129.92 373.305 170.595C384.149 212.911 381.852 259.981 352.919 296.524C323.323 333.902 275.256 350.396 227.578 354.645C176.58 359.19 120.332 356.594 89.5382 319.996C58.9231 283.612 70.444 230.675 83.4351 183.339C96.0526 137.363 114.266 88.359 159.172 66.2654Z" fill="url(#paint0_linear)" fill-opacity="0.4"/>
<defs>
<linearGradient id="paint0_linear" x1="145.747" y1="72.9855" x2="282.315" y2="345.702" gradientUnits="userSpaceOnUse">
<stop stop-color="#FCDAB7"/>
<stop offset="1" stop-color="#FCDAB7" stop-opacity="0"/>
</linearGradient>
</defs>
</svg>
