<svg width="184" height="185" viewBox="0 0 184 185" fill="none" xmlns="http://www.w3.org/2000/svg">
<path d="M174.405 82.4141H161.016C160.228 76.6119 158.744 71.0162 156.604 65.7585L168.152 59.0926C172.734 56.4449 174.311 50.5864 171.663 46.0047C169.016 41.423 163.157 39.8457 158.575 42.4933L146.99 49.1781C143.441 44.6339 139.347 40.5405 134.803 36.9915L141.488 25.4059C144.136 20.8242 142.558 14.9656 137.977 12.318C133.395 9.67037 127.536 11.2477 124.889 15.8294L118.223 27.3775C112.965 25.2369 107.369 23.7722 101.567 22.9648V9.59526C101.567 4.30003 97.2858 0 91.9718 0C86.6766 0 82.3766 4.28125 82.3766 9.59526V22.9836C76.5743 23.7722 70.9787 25.2556 65.721 27.3963L59.055 15.8481C56.4262 11.2665 50.5676 9.68915 45.9671 12.3368C41.3854 14.9844 39.8081 20.8429 42.4558 25.4246L49.1405 37.0103C44.5964 40.5592 40.5029 44.6339 36.954 49.1969L25.3683 42.5121C20.7866 39.8645 14.9281 41.4418 12.2804 46.0235C9.63282 50.6052 11.2101 56.4637 15.7918 59.1113L27.3399 65.7773C25.1993 71.035 23.7347 76.6307 22.9272 82.4329H9.59526C4.30003 82.4141 0 86.7141 0 92.0094C0 97.3046 4.30003 101.605 9.59526 101.605H22.9836C23.7722 107.407 25.2556 113.003 27.3963 118.26L15.8481 124.926C11.2665 127.574 9.68915 133.432 12.3368 138.014C14.9844 142.596 20.8429 144.173 25.4246 141.525L37.0103 134.841C40.5592 139.385 44.6339 143.478 49.1781 147.008L42.4933 158.594C39.8457 163.176 41.423 169.034 46.0047 171.682C50.5864 174.33 56.4449 172.752 59.0926 168.171L65.7585 156.622C71.0162 158.763 76.6119 160.247 82.4141 161.035V174.424C82.4141 179.719 86.6954 184.019 92.0094 184.019C97.3046 184.019 101.605 179.738 101.605 174.424V161.035C107.407 160.247 113.003 158.763 118.26 156.622L124.926 168.171C127.574 172.752 133.432 174.33 138.014 171.682C142.596 169.034 144.173 163.176 141.525 158.594L134.822 147.008C139.366 143.46 143.46 139.385 146.99 134.841L158.575 141.525C163.157 144.173 169.016 142.596 171.663 138.014C174.311 133.432 172.734 127.574 168.152 124.926L156.604 118.26C158.744 113.003 160.228 107.407 161.016 101.605H174.405C179.7 101.605 184 97.3234 184 92.0094C184 86.7141 179.7 82.4141 174.405 82.4141ZM88.2727 52.6895C93.3989 52.6895 97.5675 56.8393 97.5675 61.9843C97.5675 67.1105 93.4177 71.2791 88.2727 71.2791C83.1464 71.2791 78.9779 67.1105 78.9779 61.9843C78.9779 56.858 83.1277 52.6895 88.2727 52.6895ZM85.5499 132.08C76.349 132.08 68.8944 124.626 68.8944 115.444C68.8944 106.243 76.349 98.788 85.5499 98.788C94.7509 98.788 102.206 106.243 102.206 115.444C102.206 124.626 94.7509 132.08 85.5499 132.08ZM113.078 102.656C105.398 102.656 99.1636 96.4221 99.1636 88.7609C99.1636 81.0809 105.398 74.8656 113.078 74.8656C120.758 74.8656 126.973 81.0809 126.973 88.7609C126.973 96.4221 120.758 102.656 113.078 102.656Z" fill="#FCDAB7"/>
</svg>
