<svg width="96" height="96" viewBox="0 0 96 96" fill="none" xmlns="http://www.w3.org/2000/svg">
<g clip-path="url(#clip0)">
<path d="M38.1186 51.3103C46.3332 51.3103 53.0152 44.6284 53.0152 36.4138C53.0152 28.1992 46.3332 21.5172 38.1186 21.5172C29.9057 21.5172 23.2221 28.1992 23.2221 36.4138C23.2221 44.6284 29.904 51.3103 38.1186 51.3103ZM28.1876 31.4483H33.1531V26.4828C33.1531 25.5674 33.8946 24.8276 34.8083 24.8276H41.429C42.3426 24.8276 43.0841 25.5674 43.0841 26.4828V31.4483H48.0496C48.9633 31.4483 49.7048 32.1881 49.7048 33.1034V39.7241C49.7048 40.6394 48.9633 41.3793 48.0496 41.3793H43.0841V46.3448C43.0841 47.2601 42.3426 48 41.429 48H34.8083C33.8946 48 33.1531 47.2601 33.1531 46.3448V41.3793H28.1876C27.2739 41.3793 26.5324 40.6394 26.5324 39.7241V33.1034C26.5324 32.1881 27.2739 31.4483 28.1876 31.4483Z" fill="#1D2D50"/>
<path d="M53.0152 8.27586V1.65517V0H23.2221V1.65517V8.27586V9.93104H53.0152V8.27586Z" fill="#1D2D50"/>
<path d="M36.4634 39.7241V44.6897H39.7738V39.7241C39.7738 38.8088 40.5153 38.069 41.429 38.069H46.3945V34.7586H41.429C40.5153 34.7586 39.7738 34.0188 39.7738 33.1035V28.1379H36.4634V33.1035C36.4634 34.0188 35.7219 34.7586 34.8083 34.7586H29.8428V38.069H34.8083C35.7219 38.069 36.4634 38.8088 36.4634 39.7241Z" fill="#1D2D50"/>
<path d="M71.8428 3.31036H56.3255V6.62071H69.5669C70.4805 6.62071 71.2221 7.36057 71.2221 8.27588V87.7242C71.2221 88.6395 70.4805 89.3793 69.5669 89.3793H5.01517C4.10152 89.3793 3.36 88.6395 3.36 87.7242V8.27588C3.36 7.36057 4.10152 6.62071 5.01517 6.62071H19.9117V3.31036H2.73931C1.25628 3.31036 0.0496552 4.51698 0.0496552 6.00002V90C0.0496552 91.4831 1.25628 92.6897 2.73931 92.6897H71.8428C73.3258 92.6897 74.5324 91.4831 74.5324 90V6.00002C74.5324 4.51698 73.3258 3.31036 71.8428 3.31036Z" fill="#1D2D50"/>
<path d="M19.9117 9.93103H6.67035V86.069H67.9117V9.93103H56.3255V11.5862C56.3255 12.5015 55.584 13.2414 54.6704 13.2414H21.5669C20.6532 13.2414 19.9117 12.5015 19.9117 11.5862V9.93103ZM41.429 64.5517H21.5669C20.6532 64.5517 19.9117 63.8119 19.9117 62.8965C19.9117 61.9812 20.6532 61.2414 21.5669 61.2414H41.429C42.3426 61.2414 43.0841 61.9812 43.0841 62.8965C43.0841 63.8119 42.3426 64.5517 41.429 64.5517ZM53.0152 69.5172C53.9288 69.5172 54.6704 70.2571 54.6704 71.1724C54.6704 72.0877 53.9288 72.8276 53.0152 72.8276H33.1531C32.2395 72.8276 31.4979 72.0877 31.4979 71.1724C31.4979 70.2571 32.2395 69.5172 33.1531 69.5172H53.0152ZM11.6359 61.2414H14.9462C15.8599 61.2414 16.6014 61.9812 16.6014 62.8965C16.6014 63.8119 15.8599 64.5517 14.9462 64.5517H11.6359C10.7222 64.5517 9.98069 63.8119 9.98069 62.8965C9.98069 61.9812 10.7222 61.2414 11.6359 61.2414ZM11.6359 69.5172H26.5324C27.4461 69.5172 28.1876 70.2571 28.1876 71.1724C28.1876 72.0877 27.4461 72.8276 26.5324 72.8276H11.6359C10.7222 72.8276 9.98069 72.0877 9.98069 71.1724C9.98069 70.2571 10.7222 69.5172 11.6359 69.5172ZM14.9462 81.1034H11.6359C10.7222 81.1034 9.98069 80.3636 9.98069 79.4483C9.98069 78.533 10.7222 77.7931 11.6359 77.7931H14.9462C15.8599 77.7931 16.6014 78.533 16.6014 79.4483C16.6014 80.3636 15.8599 81.1034 14.9462 81.1034ZM41.429 81.1034H21.5669C20.6532 81.1034 19.9117 80.3636 19.9117 79.4483C19.9117 78.533 20.6532 77.7931 21.5669 77.7931H41.429C42.3426 77.7931 43.0841 78.533 43.0841 79.4483C43.0841 80.3636 42.3426 81.1034 41.429 81.1034ZM62.9462 81.1034H48.0497C47.136 81.1034 46.3945 80.3636 46.3945 79.4483C46.3945 78.533 47.136 77.7931 48.0497 77.7931H62.9462C63.8599 77.7931 64.6014 78.533 64.6014 79.4483C64.6014 80.3636 63.8599 81.1034 62.9462 81.1034ZM62.9462 72.8342H59.6359C58.7222 72.8342 57.9807 72.0943 57.9807 71.179C57.9807 70.2637 58.7222 69.5239 59.6359 69.5239H62.9462C63.8599 69.5239 64.6014 70.2637 64.6014 71.179C64.6014 72.0943 63.8599 72.8342 62.9462 72.8342ZM62.9462 61.2414C63.8599 61.2414 64.6014 61.9812 64.6014 62.8965C64.6014 63.8119 63.8599 64.5517 62.9462 64.5517H48.0497C47.136 64.5517 46.3945 63.8119 46.3945 62.8965C46.3945 61.9812 47.136 61.2414 48.0497 61.2414H62.9462ZM38.1186 18.2069C48.1573 18.2069 56.3255 26.3752 56.3255 36.4138C56.3255 46.4524 48.1573 54.6207 38.1186 54.6207C28.08 54.6207 19.9117 46.4524 19.9117 36.4138C19.9117 26.3752 28.0784 18.2069 38.1186 18.2069Z" fill="#1D2D50"/>
<path d="M82.8083 34.7586H96.0497V44.6896H82.8083V34.7586Z" fill="#1D2D50"/>
<path d="M82.8083 48H96.0497V71.1724H82.8083V48Z" fill="#1D2D50"/>
<path d="M91.8604 0H86.9975C84.6869 0 82.8083 1.88028 82.8083 4.18924V11.5862V31.4483H96.0497V11.5862V4.18924C96.0497 1.88028 94.171 0 91.8604 0V0Z" fill="#1D2D50"/>
<path d="M82.8083 82.7586C82.8083 83.1178 82.9241 83.4654 83.1393 83.7517L87.7738 89.9305V94.3448C87.7738 95.2601 88.5153 96 89.429 96C90.3426 96 91.0841 95.2601 91.0841 94.3448V89.9305L95.7186 83.7517C95.9338 83.4654 96.0497 83.1178 96.0497 82.7586V74.4828H82.8083V82.7586Z" fill="#1D2D50"/>
</g>
<defs>
<clipPath id="clip0">
<rect width="96" height="96" fill="white"/>
</clipPath>
</defs>
</svg>
