<svg width="242" height="242" viewBox="0 0 242 242" fill="none" xmlns="http://www.w3.org/2000/svg">
<path d="M228.485 107.969H210.945C209.912 100.368 207.968 93.0372 205.164 86.1492L220.293 77.4162C226.295 73.9476 228.362 66.2724 224.893 60.27C221.425 54.2676 213.749 52.2012 207.747 55.6698L192.569 64.4274C187.919 58.4742 182.557 53.1114 176.603 48.462L185.361 33.2838C188.83 27.2814 186.763 19.6062 180.761 16.1376C174.758 12.669 167.083 14.7354 163.615 20.7378L154.882 35.8668C147.994 33.0624 140.663 31.1436 133.061 30.0858V12.5706C133.061 5.6334 127.453 0 120.491 0C113.554 0 107.92 5.6088 107.92 12.5706V30.1104C100.319 31.1436 92.988 33.087 86.1 35.8914L77.367 20.7624C73.923 14.76 66.2478 12.6936 60.2208 16.1622C54.2184 19.6308 52.152 27.306 55.6206 33.3084L64.3782 48.4866C58.425 53.136 53.0622 58.4742 48.4128 64.452L33.2346 55.6944C27.2322 52.2258 19.557 54.2922 16.0884 60.2946C12.6198 66.297 14.6862 73.9722 20.6886 77.4408L35.8176 86.1738C33.0132 93.0618 31.0944 100.393 30.0366 107.994H12.5706C5.6334 107.969 0 113.603 0 120.54C0 127.477 5.6334 133.111 12.5706 133.111H30.1104C31.1436 140.712 33.087 148.043 35.8914 154.931L20.7624 163.664C14.76 167.132 12.6936 174.808 16.1622 180.81C19.6308 186.812 27.306 188.879 33.3084 185.41L48.4866 176.653C53.136 182.606 58.4742 187.969 64.4274 192.593L55.6698 207.772C52.2012 213.774 54.2676 221.449 60.27 224.918C66.2724 228.386 73.9476 226.32 77.4162 220.318L86.1492 205.189C93.0372 207.993 100.368 209.936 107.969 210.97V228.509C107.969 235.447 113.578 241.08 120.54 241.08C127.477 241.08 133.111 235.471 133.111 228.509V210.97C140.712 209.936 148.043 207.993 154.931 205.189L163.664 220.318C167.132 226.32 174.808 228.386 180.81 224.918C186.812 221.449 188.879 213.774 185.41 207.772L176.628 192.593C182.581 187.944 187.944 182.606 192.569 176.653L207.747 185.41C213.749 188.879 221.425 186.812 224.893 180.81C228.362 174.808 226.295 167.132 220.293 163.664L205.164 154.931C207.968 148.043 209.912 140.712 210.945 133.111H228.485C235.422 133.111 241.055 127.502 241.055 120.54C241.055 113.603 235.422 107.969 228.485 107.969ZM115.645 69.0276C122.36 69.0276 127.822 74.4642 127.822 81.2046C127.822 87.9204 122.385 93.3816 115.645 93.3816C108.929 93.3816 103.468 87.9204 103.468 81.2046C103.468 74.4888 108.904 69.0276 115.645 69.0276ZM112.078 173.036C100.024 173.036 90.2574 163.27 90.2574 151.241C90.2574 139.187 100.024 129.421 112.078 129.421C124.132 129.421 133.898 139.187 133.898 151.241C133.898 163.27 124.132 173.036 112.078 173.036ZM148.141 134.488C138.08 134.488 129.913 126.321 129.913 116.284C129.913 106.223 138.08 98.0802 148.141 98.0802C158.203 98.0802 166.345 106.223 166.345 116.284C166.345 126.321 158.203 134.488 148.141 134.488Z" fill="#1D2D50"/>
</svg>
